<?xml version="1.0" encoding="utf-8"?>
<!-- Generator: Adobe Illustrator 24.1.0, SVG Export Plug-In . SVG Version: 6.00 Build 0)  -->
<svg version="1.1" id="Ebene_2_1_" xmlns="http://www.w3.org/2000/svg" xmlns:xlink="http://www.w3.org/1999/xlink" x="0px" y="0px"
	 viewBox="0 0 250.2 249.7" style="enable-background:new 0 0 250.2 249.7;" xml:space="preserve">
<style type="text/css">
	.st0{fill:#95A524;}
	.st1{fill:#422A1B;}
	.st2{fill:#ECEBE3;}
	.st3{fill:#97958C;}
	.st4{fill:#D5D3CA;}
</style>
<g>
	<path class="st0" d="M61.6,7h126.9c30.2,0,54.6,24.5,54.6,54.6V188c0,30.2-24.5,54.6-54.6,54.6H61.6C31.5,242.7,7,218.2,7,188V61.6
		C7,31.5,31.5,7,61.6,7z"/>
	<path class="st1" d="M188.5,249.7H61.6C27.7,249.7,0,222,0,188V61.6C0,27.7,27.7,0,61.6,0h126.9c34,0,61.6,27.7,61.6,61.6V188
		C250.2,222,222.5,249.7,188.5,249.7z M61.6,14C35.4,14,14,35.4,14,61.6V188c0,26.3,21.4,47.6,47.6,47.6h126.9
		c26.3,0,47.6-21.4,47.6-47.6V61.6c0-26.3-21.4-47.6-47.6-47.6H61.6z"/>
</g>
<path class="st2" d="M209.9,105.1c1.4,4.3,2.8,8.6,4.2,12.8c2.1,6.5,4.2,12.9,6.3,19.4c0.2,0.6,0.4,1.3,0.6,1.9v1.8
	c-0.1,0.5-0.2,0.9-0.4,1.4c-0.5,1.5-1.5,2.8-2.8,3.7l-33.1,24.1l-57.9,42.1c-0.3,0.2-0.6,0.4-0.9,0.6c0.1-0.2,0.2-0.5,0.3-0.7
	c1-1.3,2-2.6,3.1-4l6.9-8.9c2.8-3.6,5.6-7.1,8.4-10.7c2.3-3,4.6-5.9,6.9-8.9c3-3.8,5.9-7.5,8.9-11.3c2.7-3.4,5.3-6.9,8-10.4
	c4.3-5.5,8.5-10.9,12.8-16.4c3.5-4.5,7-9,10.5-13.5l8.4-10.8c2-2.5,4-5,5.9-7.6c1.2-1.6,2.4-3.2,3.6-4.8L209.9,105.1z"/>
<path class="st3" d="M90.2,105c0.3,0,0.6,0,0.9,0h68.4c0.4,0,0.7,0,1,0.1l-0.1,0.4c-1,3.1-2,6.2-3,9.3c-2,6.3-4.1,12.5-6.1,18.8
	s-4,12.4-6,18.5c-2,6.3-4,12.5-6.1,18.8c-2,6.2-4,12.3-6,18.5c-2.3,7.1-4.6,14.1-6.9,21.2c-0.3,0.8-0.5,1.7-0.8,2.5l-0.2-0.1
	C113.6,176.9,101.9,140.9,90.2,105z"/>
<path class="st4" d="M125.4,213c0.3-0.8,0.5-1.7,0.8-2.5c2.3-7.1,4.6-14.1,6.9-21.2c2-6.2,4-12.3,6-18.5c2-6.3,4.1-12.5,6.1-18.8
	c2-6.2,4-12.3,6-18.5c2.1-6.3,4.1-12.6,6.1-18.8c1-3.1,2-6.2,3-9.3l0.1-0.4h0.1h0.1c0.4,0,0.7,0.1,1.1,0.1h47.9
	c-1.2,1.6-2.4,3.2-3.6,4.8c-2,2.5-4,5-5.9,7.6l-8.4,10.8c-3.5,4.5-7,9-10.5,13.5c-4.3,5.5-8.5,10.9-12.8,16.4
	c-2.7,3.4-5.3,6.9-8,10.4c-2.9,3.8-5.9,7.5-8.9,11.3c-2.3,3-4.6,5.9-6.9,8.9c-2.8,3.6-5.6,7.1-8.4,10.7l-6.9,8.9
	c-1,1.3-2.1,2.6-3.1,4c-0.1,0.2-0.2,0.4-0.3,0.7l-0.2,0.1L125.4,213z"/>
<path class="st4" d="M90.2,105c11.7,36,23.4,72,35.1,107.9h-0.4l0,0l-0.2-0.1l0,0c0-0.2-0.1-0.3-0.1-0.5l-2-2.6
	c-2.7-3.5-5.4-7-8.1-10.4c-4.5-5.7-9-11.4-13.5-17.2c-3.2-4.1-6.3-8.1-9.5-12.2l-13.6-17.4l-10.5-13.5c-4.4-5.6-8.8-11.3-13.2-16.9
	c-3.5-4.5-7-9-10.5-13.5c-0.8-1.1-1.7-2.2-2.5-3.3h47.8c0.3,0,0.7-0.1,1-0.2h0.2C90.1,104.9,90.1,104.9,90.2,105z"/>
<path class="st2" d="M41.1,105.1c0.8,1.1,1.7,2.2,2.5,3.3c3.5,4.5,7,9,10.5,13.5c4.4,5.6,8.8,11.3,13.2,16.9l10.5,13.5l13.6,17.4
	c3.2,4.1,6.3,8.1,9.5,12.2c4.5,5.7,9,11.4,13.5,17.2c2.7,3.5,5.4,6.9,8.1,10.4l2,2.6l-0.4,0.2c-2.8-2-5.6-4-8.3-6
	c-16.9-12.3-33.9-24.6-50.8-36.9l-32-23.3c-2.8-1.8-4-5.3-2.8-8.5c3.4-10.8,6.9-21.5,10.4-32.3c0.1-0.2,0.2-0.3,0.2-0.5H41
	C41.1,105,41.1,105,41.1,105.1z"/>
<path class="st3" d="M160.6,105c1-3.1,2-6.2,3-9.3c6-18.5,12-37,18-55.6c0.3-1.6,1.7-2.8,3.3-2.9c1.8-0.2,3.5,1,3.9,2.7
	c1.3,3.8,2.5,7.7,3.7,11.5c5.7,17.6,11.4,35.2,17.1,52.8c0.1,0.2,0.1,0.5,0.2,0.8h-48.5C161.1,104.9,160.8,105,160.6,105z"/>
<path class="st3" d="M41,104.9h-0.2c1.2-3.8,2.4-7.5,3.6-11.3C50.2,75.8,56,58,61.8,40.2c0.8-2.3,2.5-3.5,4.6-2.8
	c1.3,0.4,2.2,1.4,2.5,2.6c1.6,4.8,3.1,9.7,4.7,14.5c5.4,16.5,10.7,33.1,16.1,49.6c0.1,0.3,0.1,0.6,0.2,0.8H41.8L41,104.9z"/>
</svg>
