<?xml version="1.0" encoding="UTF-8"?>
<svg width="10px" height="27px" viewBox="0 0 10 27" version="1.1" xmlns="http://www.w3.org/2000/svg" xmlns:xlink="http://www.w3.org/1999/xlink">
    <!-- Generator: Sketch 63 (92445) - https://sketch.com -->
    <title>person / unchecked</title>
    <desc>Created with Sketch.</desc>
    <g id="Page-1" stroke="none" stroke-width="1" fill="none" fill-rule="evenodd">
        <g id="Gesuch-bearbeiten-/-Personenbedarf" transform="translate(-201.000000, -832.000000)" fill="#BABABA">
            <g id="person-/-unchecked" transform="translate(201.000000, 832.000000)">
                <g id="noun_person_1218618">
                    <path d="M9.99481775,14.6308358 C9.99481775,14.602615 9.40602971,10.4541518 9.25243283,9.21243495 C9.04763699,7.66028887 8.04925727,6.47501369 6.76928327,6.13636364 C6.25729367,6.47501369 5.64290615,6.67255955 5.00291916,6.67255955 C4.36293216,6.67255955 3.74854464,6.47501369 3.23655504,6.13636364 C1.93098156,6.47501369 0.958201325,7.66028887 0.753405485,9.21243495 C0.574209125,10.4823726 0.0110205667,14.602615 0.0110205667,14.6308358 C-0.0657778732,15.1670317 0.267015366,15.6750068 0.753405485,15.7596693 C1.31659404,15.8443318 1.72618572,15.4210192 1.77738468,14.941265 C1.77738468,14.9130442 2.44297116,10.0872809 2.5197696,9.551085 C2.5197696,9.52286416 2.54536908,9.49464332 2.57096856,9.49464332 C2.62216752,9.49464332 2.647767,9.52286416 2.647767,9.57930584 L2.647767,16.0700985 L1.85418312,25.6087417 C1.80298416,26.3142626 2.2637748,26.935121 2.9037618,26.9915627 C3.5437488,27.0480044 4.10693736,26.5400293 4.15813632,25.8345084 C4.15813632,25.8345084 4.92612072,16.5498528 4.92612072,16.5216319 C4.92612072,16.4934111 5.02851864,16.4934111 5.02851864,16.5216319 C5.02851864,16.5498528 5.79650303,25.8345084 5.79650303,25.8345084 C5.84770199,26.5118085 6.30849263,27.0762252 7.05087755,26.9915627 C7.69086455,26.935121 8.15165519,26.3142626 8.10045623,25.6087417 L7.30687235,16.0700985 L7.33247183,9.52286416 C7.33247183,9.49464332 7.35807131,9.46642249 7.38367079,9.46642249 C7.40927027,9.46642249 7.43486975,9.49464332 7.43486975,9.52286416 C7.51166819,10.0590601 8.17725467,14.9130442 8.17725467,14.9694858 C8.25405311,15.4492401 8.58684635,15.9007735 9.20123387,15.7878901 C9.71322347,15.6750068 10.0460167,15.1670317 9.99481775,14.6308358 Z" id="Path" fill-rule="nonzero"></path>
                    <ellipse id="Oval" fill-rule="nonzero" cx="5" cy="2.45454545" rx="2.64705882" ry="2.45454545"></ellipse>
                </g>
            </g>
        </g>
    </g>
</svg>